Before,After 24 hours,Difference
"6,98","6,95","0,03"
"7,08","6,94","0,14"
"8,34","7,97","0,37"
"5,3","5,15","0,15"
"6,26","6,28","-0,02"
"6,77","6,81","-0,04"
"7,03","6,69","0,34"
"5,56","5,34","0,22"
"5,97","5,98","-0,01"
"6,64","6,51","0,13"
"7,03","6,84","0,19"
"7,49","6,99","0,5"
"8,36","7,71","0,65"
"5,2","5,1","0,1"
"6,6","6,78","-0,18"
"6,97","6,91","0,06"
"7,13","6,56","0,57"
"5,59","5,32","0,27"
"5,87","5,98","-0,11"
"6,67","6,49","0,18"
