Model,Country,Weight,Size
Acura Integra,Japan,2700,Not Large
Acura Legend V6,Japan,3265,Not Large
Buick Century,USA,2880,Not Large
Buick Electra V6,USA,3350,Large
Buick Le Sabre V6,USA,3325,Large
Buick Riviera V6,USA,3465,Not Large
Buick Skylark,USA,2640,Not Large
Cadillac Brougham V8,USA,4285,Large
Cadillac De Ville V8,USA,3545,Large
Cadillac Eldorado V8,USA,3480,Not Large
Chevrolet Astro V6,USA,4025,Large
Chevrolet Beretta,USA,2655,Not Large
Chevrolet Camaro V6,USA,3110,Not Large
Chevrolet Camaro V8,USA,3320,Not Large
Chevrolet Caprice V8,USA,3855,Large
Chevrolet Cavalier,USA,2485,Not Large
Chevrolet Corvette V8,USA,3280,Not Large
Chevrolet Lumina,USA,3195,Not Large
Chevrolet Lumina APV V6,USA,3630,Large
Chrysler Imperial V6,USA,3570,Not Large
Chrysler Le Baron Coupe,USA,2975,Not Large
Chrysler Le Baron V6,USA,3065,Not Large
Chrysler New Yorker V6,USA,3450,Not Large
Dodge Caravan,USA,3385,Large
Dodge Colt,Japan,2270,Not Large
Dodge Daytona,USA,2885,Not Large
Dodge Daytona Turbo,USA,2935,Not Large
Dodge Dynasty,USA,3080,Not Large
Dodge Grand Caravan V6,USA,3735,Large
Dodge Omni,USA,2300,Not Large
Dodge Shadow Turbo,USA,2670,Not Large
Eagle Premier V6,USA,3145,Not Large
Eagle Summit,USA,2560,Not Large
Eagle Talon,USA,2780,Not Large
Ford Aerostar V6,USA,3665,Large
Ford Escort,USA,2345,Not Large
Ford LTD Crown Victoria V8,USA,3850,Large
Ford Mustang,USA,2850,Not Large
Ford Mustang V8,USA,3310,Not Large
Ford Probe,USA,2695,Not Large
Ford Probe GT,USA,2870,Not Large
Ford Taurus,USA,3015,Not Large
Ford Taurus V6,USA,3190,Not Large
Ford Tempo,USA,2750,Not Large
Ford Thunderbird V6,USA,3610,Not Large
GEO Metro,Japan,1695,Not Large
GEO Storm,Japan,2455,Not Large
Honda Civic CRX Si,Japan,2170,Not Large
Honda Prelude Si 4WS,Japan,2710,Not Large
Infiniti Q45 V8,Japan,4000,Not Large
Lexus LS 400 V8,Japan,3930,Not Large
Lincoln Continental V6,USA,3695,Not Large
Lincoln Mark VII V8,USA,3780,Not Large
Lincoln Town Car V8,USA,4040,Large
Mazda 929 V6,Japan,3480,Not Large
Mazda MPV V6,Japan,3735,Large
Mazda MX-5 Miata,Japan,2210,Not Large
Mazda Protege,Japan,2440,Not Large
Mitsubishi Galant,Japan,2745,Not Large
Mitsubishi Sigma V6,Japan,3110,Not Large
Mitsubishi Wagon,Japan,3415,Large
Nissan 240SX,Japan,2775,Not Large
Nissan 300ZX V6,Japan,3350,Not Large
Nissan Axxess,Japan,3185,Large
Nissan Maxima V6,Japan,3200,Not Large
Nissan Pulsar NX XE,Japan,2390,Not Large
Nissan Stanza,Japan,2920,Not Large
Nissan Van,Japan,3690,Large
Olds Cutlass Supreme V6,USA,3220,Not Large
Oldsmobile Calais,USA,2645,Not Large
Oldsmobile Cutlass Ciera,USA,2765,Not Large
Plymouth Laser,USA,2840,Not Large
Subaru Justy,Japan,1900,Not Large
Subaru Loyale,Japan,2295,Not Large
Subaru XT,Japan,2485,Not Large
Toyota Celica GT-S,Japan,2885,Not Large
Toyota Cressida,Japan,3480,Not Large
Toyota Supra,Japan,3470,Not Large
Toyota Tercel,Japan,2075,Not Large
