Car,Material A,Material B,Difference,Side A,Side B
1,"2,5","2,7","-0,2",left,right
2,3,"3,1","-0,1",left,right
3,3,"3,1","-0,1",right,left
4,"3,9","3,8","0,1",right,left
5,"1,9","1,8","0,1",right,left
5,"2,3","2,5","-0,2",left,right
7,"3,5","3,7","-0,2",right,left
8,"2,2","2,4","-0,2",right,left
9,"3,5","3,8","-0,3",left,right
10,"2,9","3,3","-0,4",left,right
