Exp Number,Dosis (cat),Dosis (cont),Status
1,1,1,survived
2,1,1,survived
3,1,1,survived
4,1,1,survived
5,1,1,survived
6,1,1,survived
7,1,1,dead
8,1,1,survived
9,1,1,survived
10,1,1,survived
11,1,1,survived
12,1,1,survived
13,1,1,survived
14,1,1,survived
15,1,1,survived
16,1,1,survived
17,1,1,survived
18,1,1,survived
19,1,1,survived
20,1,1,survived
21,2,2,survived
22,2,2,survived
23,2,2,survived
24,2,2,survived
25,2,2,survived
26,2,2,survived
27,2,2,survived
28,2,2,dead
29,2,2,survived
30,2,2,survived
31,2,2,survived
32,2,2,survived
33,2,2,survived
34,2,2,dead
35,2,2,survived
36,2,2,survived
37,2,2,dead
38,2,2,survived
39,2,2,survived
40,2,2,survived
41,3,3,survived
42,3,3,dead
43,3,3,dead
44,3,3,survived
45,3,3,survived
46,3,3,survived
47,3,3,survived
48,3,3,dead
49,3,3,survived
50,3,3,survived
51,3,3,dead
52,3,3,survived
53,3,3,survived
54,3,3,survived
55,3,3,survived
56,3,3,survived
57,3,3,survived
58,3,3,survived
59,3,3,survived
60,3,3,survived
61,4,4,dead
62,4,4,dead
63,4,4,survived
64,4,4,survived
65,4,4,dead
66,4,4,dead
67,4,4,survived
68,4,4,dead
69,4,4,survived
70,4,4,survived
71,4,4,dead
72,4,4,dead
73,4,4,survived
74,4,4,survived
75,4,4,survived
76,4,4,dead
77,4,4,dead
78,4,4,dead
79,4,4,survived
80,4,4,survived
81,5,5,survived
82,5,5,dead
83,5,5,survived
84,5,5,dead
85,5,5,survived
86,5,5,dead
87,5,5,dead
88,5,5,dead
89,5,5,dead
90,5,5,dead
91,5,5,dead
92,5,5,survived
93,5,5,dead
94,5,5,survived
95,5,5,dead
96,5,5,dead
97,5,5,dead
98,5,5,dead
99,5,5,dead
100,5,5,dead
101,6,6,dead
102,6,6,survived
103,6,6,dead
104,6,6,dead
105,6,6,dead
106,6,6,dead
107,6,6,dead
108,6,6,dead
109,6,6,dead
110,6,6,dead
111,6,6,dead
112,6,6,dead
113,6,6,dead
114,6,6,survived
115,6,6,dead
116,6,6,dead
117,6,6,survived
118,6,6,dead
119,6,6,survived
120,6,6,dead
121,7,7,dead
122,7,7,dead
123,7,7,dead
124,7,7,dead
125,7,7,dead
126,7,7,dead
127,7,7,dead
128,7,7,dead
129,7,7,survived
130,7,7,dead
131,7,7,dead
132,7,7,dead
133,7,7,dead
134,7,7,dead
135,7,7,dead
136,7,7,dead
137,7,7,dead
138,7,7,dead
139,7,7,survived
140,7,7,dead
