Speed,Consumption
20,"6,3"
25,"6,1"
30,"6,1"
35,"6,1"
40,"5,9"
45,"6,1"
50,6
55,"6,1"
60,6
65,6
70,"6,1"
75,"6,1"
80,"6,4"
85,"6,4"
90,"6,4"
95,"6,5"
100,"6,8"
105,"6,9"
110,"7,2"
115,"7,3"
120,"7,6"
125,"7,7"
130,8
135,"8,2"
140,"8,6"
145,"8,9"
150,"8,9"
155,"9,4"
160,"9,7"
165,"10,2"
170,"10,3"
