Student,Score English,Score Mathematics,Rank English,Rank Mathematics
A,56,66,9,4
B,75,70,3,2
C,45,40,10,10
D,71,60,4,7
E,61,65,"6,5",5
F,64,56,5,9
G,58,59,8,8
H,80,77,1,1
I,76,67,2,3
J,61,63,"6,5",6
