Number of bookings,P(X<=200),P(X>=201)
201,"0,9999667","0,0000333"
202,"0,9996320346","0,0003679654"
203,"0,9979419747","0,0020580253"
204,"0,9922239386","0,0077760614"
205,"0,9776429467","0,0223570533"
206,"0,9477519131","0,0522480869"
207,"0,8964389722","0,1035610278"
208,"0,8205691238","0,1794308762"
209,"0,721938321","0,278061679"
210,"0,6074169999","0,3925830001"
211,"0,4871696127","0,5128303873"
212,"0,3718414368","0,6281585632"
