Brand,lifespan
Brand 1,741
Brand 2,4618
Brand 3,2228
Brand 1,1000
Brand 2,3727
Brand 3,10338
Brand 1,195
Brand 2,3406
Brand 3,4287
Brand 1,994
Brand 2,2056
Brand 3,3111
Brand 1,1608
Brand 2,637
Brand 3,1565
Brand 1,122
Brand 2,13
Brand 3,4133
Brand 1,475
Brand 2,2387
Brand 3,2979
Brand 1,836
Brand 2,775
Brand 3,2738
Brand 1,340
Brand 2,1968
Brand 3,6724
Brand 1,29
Brand 2,594
Brand 3,185
