Number,Number of Drawings,Relative Frequency,Date of most recent Drawing
1,406,"16,76%",28.09.2011
2,416,"17,18%",27.08.2011
3,407,"16,80%",24.09.2011
4,416,"17,18%",21.09.2011
5,430,"17,75%",28.09.2011
6,396,"16,35%",24.09.2011
7,442,"18,25%",21.09.2011
8,363,"14,99%",17.09.2011
9,417,"17,22%",14.09.2011
10,405,"16,72%",03.09.2011
11,391,"16,14%",20.08.2011
12,438,"18,08%",20.08.2011
13,417,"17,22%",10.09.2011
14,418,"17,26%",24.09.2011
15,356,"14,70%",16.07.2011
16,433,"17,88%",24.08.2011
17,405,"16,72%",28.09.2011
18,379,"15,65%",28.09.2011
19,403,"16,64%",17.09.2011
20,376,"15,52%",10.09.2011
21,397,"16,39%",31.08.2011
22,449,"18,54%",17.09.2011
23,405,"16,72%",28.09.2011
24,439,"18,13%",14.09.2011
25,419,"17,30%",14.09.2011
26,385,"15,90%",28.09.2011
27,395,"16,31%",24.09.2011
28,411,"16,97%",24.09.2011
29,411,"16,97%",06.08.2011
30,383,"15,81%",21.09.2011
31,390,"16,10%",14.09.2011
32,385,"15,90%",07.09.2011
33,415,"17,13%",24.09.2011
34,401,"16,56%",17.09.2011
35,381,"15,73%",24.08.2011
36,395,"16,31%",17.08.2011
37,382,"15,77%",07.09.2011
38,430,"17,75%",03.09.2011
39,369,"15,24%",24.09.2011
40,392,"16,18%",24.08.2011
41,402,"16,60%",28.09.2011
42,404,"16,68%",24.08.2011
