﻿Kirchensteuer,Religion,Religion 2,Häufigkeit
pro,katholisch,christlich,92
contra,katholisch,christlich,8
pro,protestantisch,christlich,87
contra,protestantisch,christlich,13
pro,andere,andere,62
contra,andere,andere,38
pro,keine,keine,14
contra,keine,keine,86
