WineType,Bill
France,93
France,87
France,106
France,76
France,121
France,143
France,81
France,97
France,74
France,107
France,112
France,67
France,107
France,72
France,116
France,99
France,104
France,91
France,132
France,78
France,107
France,101
France,92
France,120
France,105
Spain,80
Spain,98
Spain,115
Spain,89
Spain,103
Spain,91
Spain,119
Spain,31
Spain,109
Spain,95
Spain,71
Spain,105
Spain,66
Spain,141
Spain,79
Spain,113
Spain,69
Spain,120
Spain,87
Spain,90
Spain,104
Spain,52
Spain,88
Spain,96
